﻿This is Search App Release Notes.
GENERAL RELEASE INFORMATION
- Release Details
    - Release name
      : version 1.3.1.1
    - Release App file Name
      : Search.zip
    - Release type (official, debug, test,...)
      : official
    - Release date
      : 2014.06.27
   
***
version 1.3.1.1
    - New feature
        N/A
    - Resolved Issues 
        + VDTRMASTER-5191 [CQ][PO3][PO1/2/3][R4][VOD] Search can be launched from widget during the playback of VOD.
***
version 1.3.0.0
	- New feature
		+ Merged PO1 and 3 to R3 HEAD branch. 
***
version 1.2.2.0_PO1
	- New feature
		+ 1080p icon updated with type A
***
version 1.2.1.1_PO1
	- New feature
		+ Fixed the side-effect as adding parameter 'xmlVersion'.
***
version 1.2.1.0_PO1
	- New feature
		+ parameter 'xmlVersion' added.
***
version 1.2.0.1_PO1
	- New feature
		+ Full HD icon changed like 'HD+1080P'
***
version 1.2.0.0_PO1
    - New feature    
		+ Support DDC-76.1 to display "FHD" icon in the Search result.
***
version 1.0.27.1
    - Resolved Issues    
		+ VDTRMASTER-4733  Platform missing in search result "People" section
***
version 1.0.26.1
    - Resolved Issues    
    	+ VDTRMASTER-4644  [CQ][R3][Search] The series in PVR is not grouped in the search result.
***
version 1.0.25.1
    - Resolved Issues    
    	+ VDTRMASTER-4638  [R3][Multiroom] No results with category search from samsung 6340-->Cisco PVR
***
version 1.0.24.1
    - Resolved Issues    
		+ VDTRMASTER-4431  [CQ][R3][Search] Error code SCH006 occurs when searching with two or more Space only .
***
version 1.0.23.1
    - Resolved Issues    
		+ VDTRMASTER-4613  [CQ][R3][Search] The result order of search is not corresponding with the settings in Management System.
***
version 1.0.22.2
    - Resolved Issues    
    	+ VDTRMASTER-4567  [R3][Search][Without MR][INGTR] The D option of Search application is not closed when going to other menus.  
    	+ VDTRMASTER-4588  [CQ][R3][VOD]VOD main should be inactive behind the search application
***    	
version 1.0.21.1
    - Resolved Issues    
    	+ VDTRMASTER-4567  [R3][Search][Without MR][INGTR] The D option of Search application is not closed when going to other menus.      	
***
version 1.0.20.2
    - Resolved Issues
       + VDTRMASTER-4479 [R3][Search][Intgr] The focus disappear in virtual keybord and wrong message display.
       + VDTRMASTER-4491 [R3 ESP - PVR] - illico 2 Multiroom No results for manual recording in search.
***       
version 1.0.19.1
    - New Feature
        + N/A
    - Resolved Issues
    	+ VDTRMASTER-1780 [VT][Search] Search result in PVR is same when genre filter is changed
***
version 1.0.18.2
    - New Feature
        + N/A
    - Resolved Issues
       + VDTRSUPPORT-130 [REGRESSION - SEARCH] - The 'keyword ' is not displayed in Yellow color in the results panel
       + VDTRMASTER-4188 [Search] Wrong results returned when searching with a space
***
version 1.0.17.2
    - New Feature
        + Applied the new MonitorService API related to the multiroom
    - Resolved Issues
        + VDTRMASTER-4180 [R3] [MR] [P3] [INTGR] : Search results different between local and remote
        + VDTRSUPPORT-135 [REGRESSION - SEARCH] - The results of a search are lost after a sort 
        + Bug fixed wrong order in source filter
***
version 1.0.16.2
    - New Feature
        + N/A
    - Resolved Issues
        + VDTRMASTER-4147 [REGRESSION - SEARCH] - The result in brackets must be singular
        + VDTRMASTER-4131 [REGRESSION - SEARCH] - Sometimes 'People' does not return the search results in brackets and the '+' sign is missing
***
version 1.0.15.3
    - New Feature
        + N/A
    - Resolved Issues
        + VDTRMASTER-4134 [REGRESSION - SEARCH] - The 'TV' group header and his search results disappear
        + VDTRMASTER-4135 [REGRESSION - SEARCH] - Can't open 'VOD' group header 
        + VDTRMASTER-4136 [REGRESSION - SEARCH] - Today's date should not be displayed
***
version 1.0.14.0
    - New Feature
        + N/A
    - Resolved Issues
        + Applied the updated Framework related to printing of app version.
***
version 1.0.13.2
    - New Feature
        + N/A
    - Resolved Issues
        + VDTRSUPPORT-109  [REGRESSION] [SEARCH] Skip Back Key should not work
        + VDTRSUPPORT-108  [REGRESSION] [SEARCH] B Key is doing an action even if not showed yet.
***
version 1.0.12.0
    - New Feature
        + N/A
    - Resolved Issues
        + Parent name for VBM log is "Remote" when the Search is launched by the Monitor(pressing search hot key).
***
version 1.0.11.0
    - New Feature
        + Applied the updated VBM format.(modified parent app name, added group id)
    - Resolved Issues
        + N/A
***
version 1.0.10.1
    - New Feature
        + N/A
    - Resolved Issues
        + VDTRMASTER-3955 : [REGRESSION] [SEARCH] Navigation arrow is on Sort text
***
version 1.0.9.0
    - New Feature
        + N/A
    - Resolved Issues
        + Bug fixed that results of PVR is disappeared when the Search is restarted.
        + Bug fixed that the cursor on the keyboard can't move to the result panel in PVR search.
***
version 1.0.8.0
    - New Feature
        + N/A
    - Resolved Issues
        + Make that send a log of parental application before send a log of session start.
        + Handling of the ClassCastException in PVR search. 
***
version 1.0.7.0
    - New Feature
        + N/A
    - Resolved Issues
        + VDTRMASTER-3487 : [Regession] [ATP SEARCH] [VT-ADV-SEARCH-101] - In french, Search's Instruction Footer is too wide to fit in the dark area when Adult content is shown
***
version 1.0.6.0
    - New Feature
        + Applied new PVR interface
        + Display the location of pvr's content for test
    - Resolved Issues
        + If Search is launched by Monitor, Search gets parent name for VBM log from Monitor.
***
version 1.0.5.0
    - New Feature
        + Multiroom pvr search
    - Resolved Issues
        + N/A
***
version 1.0.4.0
    - New Feature
        + Integrated with VBM
    - Resolved Issues
        + N/A
***
version 1.0.3.0
    - New Feature
        + Merge with R2
    - Resolved Issues
        + N/A
***
version 1.0.2.0
    - New Feature
        + Applied changed KeyboardOption interface.  (Related to VDTRMASTER-3083  [UI/GUI] [Enabler-virtual keyboard] Virtual Keyboard API should allow to activated/deactivated the "A" function)
    - Resolved Issues
        + N/A
***
version 1.0.1.0
     - New Feature
        + N/A
    - Resolved Issues
        + Bug fixed focus is disappear in the karaoke search.
***
version 1.0.0.1
     - New Feature
        + N/A
    - Resolved Issues
        + VDTRMASTER-2227 : [UI/GUI] [Search] The search results layout should be updated
***
version 1.0.0.0
     - New Feature
        + New UI of Result panel
    - Resolved Issues
        + N/A
***
version 0.3.92.2
    - New Feature
        + N/A
    - Resolved Issues
       + VDTRSUPPORT-130 [REGRESSION - SEARCH] - The 'keyword ' is not displayed in Yellow color in the results panel
       + VDTRMASTER-4188 [Search] Wrong results returned when searching with a space
***
version 0.3.91.1
    - New Feature
        + N/A
    - Resolved Issues
        + VDTRSUPPORT-135 [REGRESSION - SEARCH] - The results of a search are lost after a sort 
        + Bug fixed wrong order in source filter
***
version 0.3.90.2
    - New Feature
        + N/A
    - Resolved Issues
        + VDTRMASTER-4147 [REGRESSION - SEARCH] - The result in brackets must be singular
        + VDTRMASTER-4131 [REGRESSION - SEARCH] - Sometimes 'People' does not return the search results in brackets and the '+' sign is missing
***
version 0.3.89.3
    - New Feature
        + N/A
    - Resolved Issues
        + VDTRMASTER-4134 [REGRESSION - SEARCH] - The 'TV' group header and his search results disappear
        + VDTRMASTER-4135 [REGRESSION - SEARCH] - Can't open 'VOD' group header 
        + VDTRMASTER-4136 [REGRESSION - SEARCH] - Today's date should not be displayed
***
version 0.3.88.2
    - New Feature
        + N/A
    - Resolved Issues
        + VDTRSUPPORT-109  [REGRESSION] [SEARCH] Skip Back Key should not work
        + VDTRSUPPORT-108  [REGRESSION] [SEARCH] B Key is doing an action even if not showed yet.
***
version 0.3.87.1
    - New Feature
        + N/A
    - Resolved Issues
        + VDTRMASTER-3955 : [REGRESSION] [SEARCH] Navigation arrow is on Sort text
***
version 0.3.86.0
    - New Feature
        + N/A
    - Resolved Issues
        + Bug fixed that results of PVR is disappeared when the Search is restarted.
        + Bug fixed that the cursor on the keyboard can't move to the result panel in PVR search.
***
version 0.3.85.0
     - New Feature
        +  N/A
    - Resolved Issues
        + Handling of the ClassCastException in PVR search. 
 ***
version 0.3.84.1
     - New Feature
        +  N/A
    - Resolved Issues
        +  VDTRMASTER-3487 : [Regession] [ATP SEARCH] [VT-ADV-SEARCH-101] - In french, Search's Instruction Footer is too wide to fit in the dark area when Adult content is shown
***
version 0.3.83.1
     - New Feature
        +  N/A
    - Resolved Issues
        + VDTRMASTER-3733 : The search client sets a wrong value for the priority_platform attribute when the MS is configured in a certain way
***
version 0.3.82.0
     - New Feature
        +  N/A
    - Resolved Issues
        + Add search by production year (Related to VDTRMASTER-3715)
***
version 0.3.81.2
     - New Feature
        +  N/A
    - Resolved Issues
        + VDTRMASTER-3700 : Landscape VOD posters are not correctly displayed in the Search application
        + VDTRMASTER-3703 : [Regression Search] [VT-SEARCH-201] - Yellow cursor drifts on the left when entering characters until maximum is reached 
***
version 0.3.80.2
     - New Feature
        +  N/A
    - Resolved Issues
        + VDTRMASTER-3452 : [Regession] [ATP SEARCH] [VT-SEARCH-201] - When searching for ''Non'' or ''Oui'', we get the Error SCH505 most of the time
        + VDTRMASTER-3697 : [REGRESSION] [SEARCH] Category search does not start with two filters when launched from VOD/PPV/PVR
***
version 0.3.79.1
     - New Feature
        +  N/A
    - Resolved Issues
        + VDTRMASTER-3668 : [SEARCH] Year filter disapear when closing and relauching Search
***
version 0.3.78.1
     - New Feature
        +  N/A
    - Resolved Issues
        + VDTRMASTER-3549 : [Regression - ATP VOD] VT-VOD-R2-107 - Nothing appears when pressing 'D' key 
***
version 0.3.77.1
     - New Feature
        +  N/A
    - Resolved Issues
        + VDTRMASTER-3525 : [ui/gui] [Search] - Filters : In rating filter, the "All" filter is missing.
***
version 0.3.76.1
     - New Feature
        +  N/A
    - Resolved Issues
        + VDTRMASTER-3503 : [SEARCH] Search give technical issue when changing language in menu
***
version 0.3.75.1
     - New Feature
        +  N/A
    - Resolved Issues
        + VDTRMASTER-3487 : [ATP SEARCH] [VT-ADV-SEARCH-101] - In french, Search's Instruction Footer is too wide to fit in the dark area when Adult content is shown
***
version 0.3.74.2
     - New Feature
        +  N/A
    - Resolved Issues
        + VDTRMASTER-3452 : [No ATP] - When searching for ''Non'' or ''Oui'', we get the Error SCH505 most of the time
        + VDTRMASTER-3469 : [ATP SEARCH] [VT-ADV-SEARCH-105] - No results when Category Search is set to [Genre / Adult] + [Rating / 18+]
***
version 0.3.73.0
     - New Feature
        +  N/A
    - Resolved Issues
        + The keyboard input  while the Loading animation runs. (Related to VDTRMASTER-3452)
***
version 0.3.72.0
     - New Feature
        +  N/A
    - Resolved Issues
        + Bug fixed NPE of the PVR searching caused by duplicated thread. (Related to VDTRMASTER-3421)
***
version 0.3.71.1
     - New Feature
        +  N/A
    - Resolved Issues
        + VDTRMASTER-3421: Category Search timeout
***
version 0.3.70.0
     - New Feature
        + Call the loading animation that has the  time of delay.(Related to VDTRMASTER-3313)
    - Resolved Issues
        + N/A
***
version 0.3.69.1
     - New Feature
        + N/A
    - Resolved Issues
        + VDTRMASTER-3268 : Search - Wrong results returned when searching with a space
***
version 0.3.68.0
     - New Feature
        + N/A
    - Resolved Issues
        + Bug fixed PVR search about rating

***
version 0.3.67.0
     - New Feature
        + N/A
    - Resolved Issues
        + Edit property : SEARCH_REQUEST_WAIT=0
        + Do not display the footer of scroll description  when the focus moved to input pane.
        + Bug fixed PVR search (1.rating, 2. error of trying to search on the previous result.)
***
version 0.3.66.1
     - New Feature
        + Add property : MIN_KEYWORD(The minimum number of characters to be entered)
    - Resolved Issues
        + VDTRMASTER-3247 : [VT][Search] Adult contents of PVR search result are not displayed when user unblock PIN by pressing B button in search application
***
version 0.3.65.1
     - New Feature
        + Merge with R3.     (Related to DDC-034)
    - Resolved Issues
        + VDTRMASTER-2227    [UI/GUI] [Search] The search results layout should be updated
***
version 0.3.64.0
     - New Feature
        + Applied changed KeyboardOption interface.     (Related to VDTRMASTER-3083  [UI/GUI] [Enabler-virtual keyboard] Virtual Keyboard API
         should allow to activated/deactivated the "A" function)
    - Resolved Issues
        + N/A
***
version 0.3.63.0
     - New Feature
        + N/A
    - Resolved Issues
        + Bug fixed focus is disappear in the karaoke search.
***
version 0.3.62.1
     - New Feature
        + N/A
    - Resolved Issues
        + VDTRMASTER-2910  : [UI/GUI] Search - Applications icons is Search are not good.
***
version 0.3.61.1
     - New Feature
        + N/A
    - Resolved Issues
        + VDTRMASTER-2751 : [UI/GUI] Search - A button is offset from Search panel
***
version 0.3.60.1
     - New Feature
        + N/A
    - Resolved Issues
        + VDTRMASTER-2752 : [TOC] Message when 0 search result : A "|" is displayed after the dot.
***
version 0.3.59.0
     - New Feature
        + N/A
    - Resolved Issues
        + Bug fixed NPE  when the Search is started.
***
version 0.3.58.0
     - New Feature
        + Flush some image when client stopped.
    - Resolved Issues
        + N/A
***
version 0.3.57.0
     - New Feature
        + Flush some image when client stopped.
    - Resolved Issues
        + N/A
***
version 0.3.56.0
     - New Feature
        + N/A
    - Resolved Issues
        + Bug fixed about no sliding animation when the focus moved from the platform to title.
***
version 0.3.55.0
     - New Feature
        + When there is no character in the field, display the initial search instruction.
        + Even if the focus is on the "Show filters" button, pressing the remote "C" button has effect.
    - Resolved Issues
        + N/A    
***
version 0.3.54.2
     - New Feature
        + N/A
    - Resolved Issues
        + VDTRMASTER-2481 : [UI/GUI] [Advanced Search] - TOC to update (instruction for search)
        + VDTRMASTER-2395 : [UI/GUI] [Search] - Sort in D options: behaviour is not consistent with other apps.
***
version 0.3.53.2
     - New Feature
        + N/A
    - Resolved Issues
        + VDTRMASTER-2392 : [UI/GUI] [ITV] - Sort in D options (For Cinema)
        + VDTRMASTER-2395 : [UI/GUI] [Search] - Sort in D options: behaviour is not consistent with other apps.
***
version 0.3.52.1
     - New Feature
        + N/A
    - Resolved Issues
        + VDTRMASTER-2026 : DDC 6451 - Full List TV on result search not displayed and bottom line overlaps
***
version 0.3.51.1
     - New Feature
        + N/A
    - Resolved Issues
        + VDTRMASTER-2325 : [UI/GUI] [Enabler-Keyboard] [Search] C button does not have the bump effect
***
version 0.3.50.1
     - New Feature
        + N/A
    - Resolved Issues
        + VDTRMASTER-2288 : [UI/GUI] [General] - D-options > Close. Background should be darker.
***
version 0.3.49.1
     - New Feature
        + N/A
    - Resolved Issues
        + VDTRMASTER-2138 : [UI/GUI] [SEA] Enable keyboard while searching
***
version 0.3.48.1
     - New Feature
        + N/A
    - Resolved Issues
        + VDTRMASTER-2138 : [UI/GUI] [SEA] Enable keyboard while searching
***
version 0.3.47.0
     - New Feature
        + Applied new IXC of error message
    - Resolved Issues
        + N/A
***
version 0.3.46.1
     - New Feature
        + N/A
    - Resolved Issues
        + VDTRMASTER-2206 : DDC 6451- [TOC] SEARCH The word TV is not translated 
***
version 0.3.45.0
     - New Feature
        + Applied the changed Framework-Log.
    - Resolved Issues
        + N/A
***
version 0.3.44.0
     - New Feature
        + N/A.
    - Resolved Issues
        + Bug fixed wrong Footer in Karaoke search.
        + Bug fixed animation when Category search.  
***
version 0.3.43.0
     - New Feature
        + Hide 'C' key when Keyword Panel has not the focus.
    - Resolved Issues
        + N/A       
***
version 0.3.42.0
     - New Feature
        + N/A
    - Resolved Issues
        + VDTRMASTER-1891 : [UI/GUI] [Simple Search] - Search Panel animation is missing       
***
version 0.3.41.1
     - New Feature
        + Moving animation
        + Clicking animation(keyboard panel, detail panel)
    - Resolved Issues
        + VDTRMASTER-2034 : DDC 6451 - Validate Search with acces VOD applications
***
version 0.3.40.2
     - New Feature
        + N/A
    - Resolved Issues
        + VDTRMASTER-2106 : [UI/GUI] [SEARCH] Wait between 2nd and 3rd entered key.
        + VDTRMASTER-2094 : [UI/GUI] [Search] Add 'C' Erase key 
***
version 0.3.39.2
     - New Feature
        + N/A
    - Resolved Issues
        + VDTRMASTER-2095 :  [UI/GUI] [Search] Remove sort by price.
        + VDTRMASTER-2094 :  [UI/GUI] [Search] Add 'C' Erase key 
***
version 0.3.38.0
     - New Feature
        + Applied modified Framework(OC unload)
    - Resolved Issues
        + Show error popup 'MOT501' not 'MOT504' when the Search has not the authority.
***
version 0.3.37.0
     - New Feature
        +  Show error popup 'MOT504' when the Search has not the authority.
    - Resolved Issues
        + N/A
***
version 0.3.36.0
     - New Feature
        + New shorten() of TextUtil 
    - Resolved Issues
        + N/A
***
version 0.3.35.1
     - New Feature
        + N/A
    - Resolved Issues
        + VDTRMASTER-2014 : [UI/GUI] [Search] Search details content is missing a space before the (
***
version 0.3.34.1
     - New Feature
        + Do not show warning message
    - Resolved Issues
        + VDTRMASTER-1903 - DDC6451- TOC Error message when doing search
***
version  0.3.33.1
     - New Feature
        + N/A
    - Resolved Issues
        + VDTRMASTER-1952 - [VT][Search] The search application display same result even if do search in different region
        + Bug fixed wrong TOC
***
version  0.3.32.0
     - New Feature
        + integrated with new loading animation.
    - Resolved Issues
        + N/A
***
version  0.3.31.0
     - New Feature
        + N/A
    - Resolved Issues
        + Bug fixed wrong position of keyboard in Karaoke search
***
version  0.3.30.4
     - New Feature
        + Showing/hiding animation. 
    - Resolved Issues
        + VDTRMASTER-1860 : [UI/GUI] [Search] - Delay before search starts 
        + VDTRMASTER-1861 : [UI/GUI] [Search] - TOC - search
        + VDTRMASTER-1893 : [Simple Search] - Result list, Details panel and focus behaviour issue
        + VDTRMASTER-1894 : [UI/GUI] [Search] - Keyword search with filters - wrong behaviour
***
version  0.3.29.1
     - New Feature
        + N/A. 
    - Resolved Issues
        + VDTRMASTER-1859 : [UI/GUI] [Search] - Keyboard behaviour
***
version  0.3.28.1
     - New Feature
        + N/A. 
    - Resolved Issues
        + VDTRMASTER-1862 : [UI/GUI] [Search] - TOC - search (remove text)
        + VDTRMASTER-1859 : [UI/GUI] [Search] - Keyboard behaviour
***
version  0.3.27.1
     - New Feature
        + N/A. 
    - Resolved Issues
        + VDTRMASTER-1812 : [Search] Every time Movie genre in EPG is searched in changing genre because Movie in EPG is NA in mapping table
***
version  0.3.26.2
     - New Feature
        + N/A. 
    - Resolved Issues
        + VDTRMASTER-1807 : [VT][Search] If user select rating to Genral(All), the searched results are rating "G" only. 
        + VDTRMASTER-1815 : [VT][Search] Platform of the karaoke search result is not displayed normally
***
version  0.3.25.1
     - New Feature
        + Add TOC. 
    - Resolved Issues
        + VDTRMASTER-1764 : [UI/GUI] TOC for Search
***
version  0.3.24.1
     - New Feature
        + Add sub category of Comedy. 
    - Resolved Issues
        + VDTRMASTER-1780 : [VT][Search] Search result in PVR is same when genre filter is changed 
***
version  0.3.23.3
    - New Feature
        + N/A
    - Resolved Issues
        + VDTRMASTER-1770 : [VT][Search] If one filter is selected the search result is not refreshed in the advanced search
        + VDTRMASTER-1772 : [VT][Search] If user select source to PVR or PPV in advanced search, the search result is not displayed
        + VDTRMASTER-1773 : [VT][Search] If user press arrow key on RUC, the mini EPG appears when the Search application is launched.
***
version  0.3.22
    - New Feature
        + N/A
    - Resolved Issues
        + Bug fixed LEFT key in KeywordSearch panel.
***
version  0.3.21
    - New Feature
        + N/A
    - Resolved Issues
        + Adjust the length of the parameter  passed to VOD
***
version  0.3.20
    - New Feature
        + N/A
    - Resolved Issues
        + Bug fixed setting  MAC address
***
version  0.3.19
    - New Feature
        + N/A
    - Resolved Issues
        + Changed priority of LayeredUI -> VDTRMASTER-1671 [VT] The embedded keyboard and the Search app is duplicate when pressed 'Search' button during launched the embeded keyboard in setting app.
        + Bug fixed VDTRMASTER-1631 [VT] The 'Back' button function is twice response at normal view during lauched Search app
***
version  0.3.18
    - New Feature
         + N/A
    - Resolved Issues
        + Bug fixed searching in PVR category
 ***
version  0.3.17
    - New Feature
         + New TOC
    - Resolved Issues
        + Show error code SCH_502 when there is no series_id of series content(related to VDTRMASTER-1548, VDTRMASTER-1569)
***
version  0.3.16
    - New Feature
         + N/A
    - Resolved Issues
         + VDTRMASTER-1464  [VT][Search] If the "result order" is changed in MS, search results of the each platform will not be sorted by setting value
         + VDTRMASTER-1459  [VT][Search] Loading image and the search results are not appears when genre filter is selected in the category search
         + Bug fixed painting of people icon
 ***
version  0.3.15
    - New Feature
         + Back key closes Search application
         + Change TOC(more detail)
    - Resolved Issues
         + VDTRMASTER-1464  [VT][Search] If the "result order" is changed in MS, search results of the each platform will not be sorted by setting value
         + VDTRMASTER-1459  [VT][Search] Loading image and the search results are not appears when genre filter is selected in the category search
         + Do not use Log.developer.print(e) when Search catches NotBoundException
 ***
version  0.3.14
    - New Feature
         + N/A
    - Resolved Issues
         + Identify  name of platform KARAOKE with the name of platform VOD
 ***
version  0.3.13
    - New Feature
         + Add type of Music to Search, remove from Karaoke search.
    - Resolved Issues
         + Bug fixed OK key focus in Keyboard
         + GUI tuning
 ***
version  0.3.12
    - New Feature
         + Add TOC(show adult content)
    - Resolved Issues
         + N/A
 ***
version  0.3.11
    - New Feature
         + Synchronization of function 'startSearchClient' and separate another Thread
    - Resolved Issues
        + VDTRMASTER-488 [UI/GUI][Search] Invoking Search takes too long
 ***
version  0.3.10
    - New Feature
         + Footer clickAnimation
    - Resolved Issues
        + Changed text of Clear button "Suppr" to "Suppr."
        + Bug fixed Category search
***
version  0.3.9
    - New Feature
         + N/A
    - Resolved Issues
        + Bug fixed PVR search
***
version  0.3.8
    - New Feature
         + Change color of main title like "Keyword search" or "Category search"
    - Resolved Issues
        + Bug fixed duplicated focus when switching keyword search and category search.
        + Bug fixed wrong scrolling in category search
***
version  0.3.7
    - Resolved Issues
        + Bug fixed cannot search about PVR
        + Bug fixed mismatch between filter of advanced search and category search
        + Modified scroll text footer only showed when detail page displayed
***
version  0.3.6
    - New Feature
        + Search result reset when pressing clear button on Keyboard
        + All results reset when pressing Clear button.
        + Display current sorting
        + Modified rating filter
        + Applied new ScrollText
    - Resolved Issues
        + VDTRMASTER-1179  [UI/GUI] [Search] New clear button is incorrect in French - TOC
        + VDTRMASTER-1177 Impossible to make a second research with the search application
        + VDTRMASTER-1190 [UI/GUI] [Search] Display Result Sorting
***
- Release Details
                New features -NA
                JIRA # fixed -(VDTRMASTER-1177) Impossible to make a second research with the search
                Other - Re-build

- Release name
          : version 0.3.5
 - Release type (official, debug, test,...)
          : official
        - Release date
          : 2011.03.25
-----------------------------------------------------------------------------------
- Release Details
                New features - Partly karaoke search , add search IXC(platform_music)
                JIRA # fixed -NA
                Other - Re-build

- Release name
          : version 0.3.4
 - Release type (official, debug, test,...)
          : official
        - Release date
          : 2011.03.25
-----------------------------------------------------------------------------------
- Release Details
                New features - use printSimpleLog about search query
                JIRA # fixed -NA
                Other - add error code(when caller cannot communicated with Loading Animation, Keyboard)

- Release name
          : version 0.3.3
 - Release type (official, debug, test,...)
          : official
        - Release date
          : 2011.03.24
-----------------------------------------------------------------------------------
- Release Details
                New features - Receive Proxy host and Proxy ip from MS
                JIRA # fixed - VDTMASTER-488(Invoking Search takes too long)
                Other - NA

- Release name
          : version 0.3.2
 - Release type (official, debug, test,...)
          : official
        - Release date
          : 2011.03.22
-----------------------------------------------------------------------------------
- Release Details
                New features -NA
                JIRA # fixed -NA
                Other - bug fixed about footer
                              bug fixed about Loading animation position
                             change image of scroll

- Release name
          : version 0.3.1
 - Release type (official, debug, test,...)
          : official
        - Release date
          : 2011.03.18
-----------------------------------------------------------------------------------
- Release Details
                New features -Advanced search, Category search
                                           Remove VBM log
                                            Integrated with STC
                                            Add  Footer
                JIRA # fixed -VDTRMASTER-488, 489, 1125
                Other -NA

- Release name
          : version 0.3.0
 - Release type (official, debug, test,...)
          : official
        - Release date
          : 2011.03.17
-----------------------------------------------------------------------------------
- Release Details
                New features - Proxy host and Proxy ip
                JIRA # fixed -VDTRMASTER-779, 734
                Other -NA

- Release name
          : version 0.2.35
 - Release type (official, debug, test,...)
          : 1st SAT
        - Release date
          : 2011.02.07
-----------------------------------------------------------------------------------
- Release Details
                New features - NA
                JIRA # fixed -NA
                Other - Always do not show lock icon when the Parental_Rating is G.

- Release name
          : version 0.2.34
 - Release type (official, debug, test,...)
          : 1st SAT
        - Release date
          : 2011.01.24
-----------------------------------------------------------------------------------
- Release Details
                New features - NA
                JIRA # fixed - VDTRMASTER-379, 490
                Other - if the platform launched Search by LAST key is same with the destination platform,
                        the parameters are passed by Search listener not Monitor.

- Release name
          : version 0.2.33
 - Release type (official, debug, test,...)
          : 1st SAT
        - Release date
          : 2011.01.24
-----------------------------------------------------------------------------------
- Release Details
                New features - Hide "Scroll description" when the description is less than 1 page
                JIRA # fixed - VDTRMASTER-379, 490
                Other - NA

- Release name
          : version 0.2.32
 - Release type (official, debug, test,...)
          : 2nd Pre SAT
        - Release date
          : 2011.01.21
-----------------------------------------------------------------------------------
- Release Details
                New features - NA
                JIRA # fixed - NA
                Other - PVR AppData null check

- Release name
          : version 0.2.31
 - Release type (official, debug, test,...)
          : 2nd Pre SAT
        - Release date
          : 2011.01.20
-----------------------------------------------------------------------------------
- Release Details
                New features - NA
                JIRA # fixed - VDTRMASTER-528
                Other - fixed wrong focus in series group
                            - change time checking app authority

- Release name
          : version 0.2.30
 - Release type (official, debug, test,...)
          : 2nd Pre SAT
        - Release date
          : 2011.01.19
-----------------------------------------------------------------------------------
- Release Details
                New features - NA
                JIRA # fixed - NA
                Other - fixed bug about Setting key. If Setting key is pressed, the Search client stop.

- Release name
          : version 0.2.29
 - Release type (official, debug, test,...)
          : 2nd Pre SAT
        - Release date
          : 2011.01.19
-----------------------------------------------------------------------------------
- Release Details
                New features - input field has not focus.
                JIRA # fixed -  VDTRMASTER-492, 494,
                Other - fixed bug about Setting key.

- Release name
          : version 0.2.28
 - Release type (official, debug, test,...)
          : 2nd Pre SAT
        - Release date
          : 2011.01.18
-----------------------------------------------------------------------------------
- Release Details
                New features - apply key consistency(LIST, FF,REWIND, STOP etc..).
                                           - new framework applied
                JIRA # fixed -  VDTRMASTER-366, 367, 380

- Release name
          : version 0.2.27
 - Release type (official, debug, test,...)
          : 2nd Pre SAT
        - Release date
          : 2011.01.17
-----------------------------------------------------------------------------------
- Release Details
                new feature - show error popup for receiving Inband data.
                 bug fixed - NA

- Release name
          : version 0.2.26
 - Release type (official, debug, test,...)
          : 2nd Pre SAT
        - Release date
          : 2011.01.06
-----------------------------------------------------------------------------------
- Release Details
                 bug fixed - do not show title that has a long name at result page

- Release name
          : version 0.2.25
 - Release type (official, debug, test,...)
          : pre-SAT
        - Release date
          : 2011.01.05
-----------------------------------------------------------------------------------
- Release Details
                 bug fixed - do not show a button of "more detail" at detail page of PVR content
                                    -  search results including keyword located in the middle or end of words in pvr contents.

- Release name
          : version 0.2.24
 - Release type (official, debug, test,...)
          : pre-SAT
        - Release date
          : 2011.01.04
-----------------------------------------------------------------------------------
- Release Details
                 new feature - Change in value of PvrSerice.MENU_RECORDING_LIST(2->0)
                                        - When contextual search(search initiated from EPG,VOD, PPV or PVR), number of search results
                                             for the group header which has context is 8, (if results are less than 8, the number is 3)
                                        - If the platform that launched Search application differ from previous platform, results are initialized.
                 bug fixed - pvr result displayed when contextual search EPG,VOD,PPV
                                    - wrong widget hot key
                                    - display lock icon after success  PIN authorization

- Release name
          : version 0.2.23
 - Release type (official, debug, test,...)
          : pre-SAT
        - Release date
          : 2011.01.01
-----------------------------------------------------------------------------------
- Release Details
                 bug fixed - cannot  find PVR result

- Release name
          : version 0.2.22
 - Release type (official, debug, test,...)
          : pre-SAT
        - Release date
          : 2010.12.28
-----------------------------------------------------------------------------------
- Release Details
                 new feature - if the result of application authorization is not  "NOT_AUTHORIZED", it's same with "AUTHORIZED".
                                            (including no file to authorize)
                                        - apply TOC at PIN popup.
                 bug fixed - request to the server when keyword  consists of a letter and space.

- Release name
          : version 0.2.21
 - Release type (official, debug, test,...)
          : official
        - Release date
          : 2010.12.27
-----------------------------------------------------------------------------------
- Release Details
                 new feature - new MS configuration

- Release name
          : version 0.2.20
 - Release type (official, debug, test,...)
          : official
        - Release date
          : 2010.12.24
-----------------------------------------------------------------------------------
- Release Details
                 new feature - if Search is launched by the context(EPG, PPV, PVR ,VOD), display 8 results of platform which has the context at simple view
                 bug fixed - NPE in pvr detail page
                                   - do not focus [u] on keyboard when the focus moved from result pane.

- Release name
          : version 0.2.19
 - Release type (official, debug, test,...)
          : official
        - Release date
          : 2010.12.23
-----------------------------------------------------------------------------------
- Release Details
                bug fixed - null check of error message received from ErrorMessageService
                                   - make series group and people group.

- Release name
          : version 0.2.18
 - Release type (official, debug, test,...)
          : official
        - Release date
          : 2010.12.22
-----------------------------------------------------------------------------------
- Release Details
                new feature - add blocking by rating, display duration of PVR
                bug fixed - read local xm file.
- Release name
          : version 0.2.17
 - Release type (official, debug, test,...)
          : official
        - Release date
          : 2010.12.21
-----------------------------------------------------------------------------------
- Release Details
                new feature - add cc icon, two line gui of title's name
                bug fixed   -   wrong TOC display, initialization of display

- Release name
          : version 0.2.16
 - Release type (official, debug, test,...)
          : official
        - Release date
          : 2010.12.20
-----------------------------------------------------------------------------------
- Release Details
                new feature - new GUI
                                       - get error message from the ErrorMessage
                bug fixed   -   show input pane or result pane on ScreenSaver

- Release name
          : version 0.2.15
 - Release type (official, debug, test,...)
          : official
        - Release date
          : 2010.12.20
-----------------------------------------------------------------------------------
- Release Details
                new feature - do not pass A key to the Keyboard(UI has changed.)
                bug fixed   -  when some keyword had no result and next keyword have the result, the result of next keyword is displayed
                            like "no result".
                                     - internal error when the result only have group of people.

- Release name
          : version 0.2.14
 - Release type (official, debug, test,...)
          : test
        - Release date
          : 2010.12.13
-----------------------------------------------------------------------------------
- Release Details
                new feature - apply the Search's own parental control using the B key
                bug fixed   -  Add listener to the Screen-saver even the Search is not  started.
                                        (It causes the Screen-saver to work at AV running state)
                                     - do not pass A key to the Keyboard when the Keyboard has not a focus,
                                        ( While  Search launching, it must can be changed the keyboard mode by the A key, even the keyboard has not a focus,)
- Release name
          : version 0.2.13
 - Release type (official, debug, test,...)
          : test
        - Release date
          : 2010.12.07
-----------------------------------------------------------------------------------
- Release Details
               new feature - add new embedded keyboard
                                       - apply new TOC

- Release name
          : version 0.2.12
 - Release type (official, debug, test,...)
          : test
        - Release date
          : 2010.12.01
-----------------------------------------------------------------------------------
- Release Details
               new feature - Do not check  DNCS authority. Search application will be started all the time.
                                       - Change search IXC, return type is" void".
               bug fixed   - change function of setClip() to clipRect()
- Release name
          : version 0.2.11
 - Release type (official, debug, test,...)
          : debug
        - Release date
          : 2010.11.29
-----------------------------------------------------------------------------------
- Release Details
               new feature - if the result of DNCS authority is not 'NOT_AUTHORIZED', Search application will be started.

- Release name
          : version 0.2.10
 - Release type (official, debug, test,...)
          : official
        - Release date
          : 2010.10.31
-----------------------------------------------------------------------------------
- Release Details
               new feature - change way of Parental control.
                                       -  VOD search

- Release name
          : version 0.2.09
 - Release type (official, debug, test,...)
          : official
        - Release date
          : 2010.10.27
-----------------------------------------------------------------------------------
- Release Details
               new feature - Check DNCS authority from Monitor.
                                       - Remove checking application right from UPP.

- Release name
          : version 0.2.08
 - Release type (official, debug, test,...)
          : official
        - Release date
          : 2010.09.20
-----------------------------------------------------------------------------------
- Release Details
               new feature - Change search server url(ip to domain)

- Release name
          : version 0.2.07
 - Release type (official, debug, test,...)
          : official
        - Release date
          : 2010.09.15
-----------------------------------------------------------------------------------
- Release Details
               new feature - Use registeredAPI for embedded keyboard

                bug fixed   - when previous search result was "no result" and currently search has only result in local  PVR  search,
                                        still display "no result"

- Release name
          : version 0.2.06
 - Release type (official, debug, test,...)
          : official
        - Release date
          : 2010.08.25
-----------------------------------------------------------------------------------
- Release Details
               new feature - Pass PPV action to EPG
                                       - Add TOC phrase when People has no result.
                bug fixed   - Get wrong milliseconds of air time.

- Release name
          : version 0.2.05
 - Release type (official, debug, test,...)
          : official
        - Release date
          : 2010.08.18
-----------------------------------------------------------------------------------
- Release Details
            new feature - Change key code of Search (page up to search hot key)

- Release name
          : version 0.2.04
 - Release type (official, debug, test,...)
          : official
        - Release date
          : 2010.08.16
-----------------------------------------------------------------------------------
- Release Details
            new feature - Change way to get value of DNCS, It gets from Monitor.
                                    - Change display of PPV air time

- Release name
          : version 0.2.03.28
 - Release type (official, debug, test,...)
          : debug
        - Release date
          : 2010.08.11
-----------------------------------------------------------------------------------
            new feature - Change time to get the region when initial Search launching.
                                    - Change default index to first index of the group if page is changed  between platform list
            bug fixed   -  mismatch between keyword and result  when Search  is stopped during requesting
                                 -  error of priority_platform parameter
                                 - display wrong error message

- Release name
          : version 0.2.03.27
 - Release type (official, debug, test,...)
          : debug
        - Release date
          : 2010.08.03
-----------------------------------------------------------------------------------
- Release Details
            new feature - Add TOC of PPV content phrase
            bug fixed   -  disappear  focusing in people group.

- Release name
          : version 0.2.03.26
 - Release type (official, debug, test,...)
          : debug
        - Release date
          : 2010.07.31
-----------------------------------------------------------------------------------
- Release Details
            new feature -  Re-add priority_platform parameter
                                    - change encoding UTF-8 to ISO_8859-1
                                    -  Add IPPV Deactivation
                                    - According to buy window time display PPV phrase
             bug fixed   -   index error in changing between default view and expanded view

- Release name
          : version 0.2.03.25
 - Release type (official, debug, test,...)
          : debug
        - Release date
          : 2010.07.31
-----------------------------------------------------------------------------------
- Release Details
            new feature -  Remove priority_platform parameter until server fixed about this problem. It causes infinite loop server side.
                                    - According to Setting's language value, display text of English or French.
             bug fixed   -  nullPointer exception at Search launching after  search request had no search result,

- Release name
          : version 0.2.03.24
 - Release type (official, debug, test,...)
          : debug
        - Release date
          : 2010.07.30
-----------------------------------------------------------------------------------
- Release Details
            new feature -  When Search application is launched, do check-right about Search.
                                   -  Add parameter when go to PVR platform in the detail pane.
                                   -  In the simple view, platform group which has list less than 3, set with dummy list.
                                   -  If Search  is stopped when request in progress, show previous succeeded results when next launching.
             bug fixed   - cancel overriding #hasFocus() , It caused focusing problem in other application after search closed

- Release name
          : version 0.2.03.23
 - Release type (official, debug, test,...)
          : debug
        - Release date
          : 2010.07.30
-----------------------------------------------------------------------------------
- Release Details
            new feature - detail pane에서 다른 플랫폼으로 action넘길 시  Check right 한 후 하도록 수정.

- Release name
          : version 0.2.03.22
 - Release type (official, debug, test,...)
          : debug
        - Release date
          : 2010.07.27
-----------------------------------------------------------------------------------
- Release Details
            new feature - PIP 핫키 처리(PIP가 뜬 상태에서는 서치만 닫기고, PIP뜨지 않은 상태에서는 서치 닫기고 PIP가 뜬다)
            bug fixed  - People 리스트에 시리즈 있을 때 포커싱 오류 수정
                                - Result list 인코딩 오류 수정
- Release name
          : version 0.2.03.21
 - Release type (official, debug, test,...)
          : debug
        - Release date
          : 2010.07.25
-----------------------------------------------------------------------------------
- Release Details
            : VOD detail GUI 버그 수정.
            : Keyboard 불어 대문자로 교체, 초기 디폴트(이전 검색결과) 키워드에 Color표시.
            : PVR정렬 알고리즘 추가.
- Release name
          : version 0.2.03.20
 - Release type (official, debug, test,...)
          : debug
        - Release date
          : 2010.07.24
-----------------------------------------------------------------------------------
- Release Details
            : debugging   progress bar, display recording status
            : edit updating PVR recordings.
            : add CANH-PPV
- Release name
          : version 0.2.03.19
 - Release type (official, debug, test,...)
          : debug
        - Release date
          : 2010.07.23
-----------------------------------------------------------------------------------
- Release Details
            : debugging PVR - search, change progress bar
            : pass Action to EPG, PPV
- Release name
          : version 0.2.03.18
 - Release type (official, debug, test,...)
          : debug
        - Release date
          : 2010.07.22
-----------------------------------------------------------------------------------
- Release Details
            : do not initialization, PVR search & go to PVR application
            : change priority of LayeredUI.
            : add dncs parameter
- Release name
          : version 0.2.03.17
 - Release type (official, debug, test,...)
          : debug
        - Release date
          : 2010.07.20
-----------------------------------------------------------------------------------
- Release Details
            : change detail GUI, query verification, progress bar fixed
            : preference language value set to DataCenter
- Release name
          : version 0.2.03.16
 - Release type (official, debug, test,...)
          : debug
        - Release date
          : 2010.07.16
-----------------------------------------------------------------------------------
- Release Details
            : bug fixed in embedded keyboard
- Release name
          : version 0.2.03.15
 - Release type (official, debug, test,...)
          : debug
        - Release date
          : 2010.07.14
-----------------------------------------------------------------------------------
- Release Details
            : edit VBM log, embedded keyboard(do not use layerdUI),
            : edit configuration protocol(priority order) , depending on platform sorting.
- Release name
          : version 0.2.03.14
 - Release type (official, debug, test,...)
          : debug
        - Release date
          : 2010.07.14
-----------------------------------------------------------------------------------
- Release Details
            : edit VBM log, URL encoding,
            : edit configuration protocol(priority order) , depending on platform sorting.
- Release name
          : version 0.2.03.13
 - Release type (official, debug, test,...)
          : debug
        - Release date
          : 2010.07.13
-----------------------------------------------------------------------------------
- Release Details
            : Numeric, color D, ch Up/Down key block,
- Release name
          : version 0.2.03.12
 - Release type (official, debug, test,...)
          : debug
        - Release date
          : 2010.07.12
-----------------------------------------------------------------------------------
- Release Details
            : add recording Popup, upp test debugging, epg hot key test
            : exit key handling
- Release name
          : version 0.2.03.11
 - Release type (official, debug, test,...)
          : debug
        - Release date
          : 2010.07.10
-----------------------------------------------------------------------------------
- Release Details
            : add VBM logging
- Release name
          : version 0.2.03.09
 - Release type (official, debug, test,...)
          : debug
        - Release date
          : 2010.07.08
-----------------------------------------------------------------------------------
- Release Details
            : Result pane focusing, SAXException add
- Release name
          : version 0.2.03.08
 - Release type (official, debug, test,...)
          : debug
        - Release date
          : 2010.07.07
-----------------------------------------------------------------------------------
- Release Details
            : edited loading position, debug
- Release name
          : version 0.2.03.07
 - Release type (official, debug, test,...)
          : debug
        - Release date
          : 2010.07.05
-----------------------------------------------------------------------------------
- Release Details
            : add  log(xml),  ppv information null handling, scrolling
- Release name
          : version 0.2.03.06
 - Release App file Name
          :
 - Release type (official, debug, test,...)
          : test
        - Release date
          : 2010.07.03
-----------------------------------------------------------------------------------
- Release Details
         -  changed detail gui, search result (people)
        - Release name
          : version 0.2.03.04
        - Release App file Name
          : vt_search_0.2.03..zip
        - Release type (official, debug, test,...)
          : test
        - Release date
          : 2010.07.02
-----------------------------------------------------------------------------------
GENERAL RELEASE INFORMATION
- Release Details
        - Release name
          : version 0.2.02
        - Release App file Name
          : vt_search_0.2.03.03..zip
        - Release type (official, debug, test,...)
          : test
        - Release date
          : 2010.06.21

- Resolved Issues
    keyboard,  GUI
version 0.2.02
    second release
------------------------------------------------------------------------------------
- Release Details
        - Release name
          : version 0.2.01
        - Release App file Name
          : vt_search_0.2.01..zip
        - Release type (official, debug, test,...)
          : debug
        - Release date
          : 2010.06.07

- Resolved Issues

version 0.2.01
    initial release