1|INFOV|ocap://f=0x23f10cc0.0x0001.m=0x10
2|CBFT|ocap://f=0x23f10cc0.0x0002.m=0x10
3|CIVM|ocap://f=0x23f10cc0.0x0003.m=0x10
4|CFTM|ocap://f=0x23f10cc0.0x0004.m=0x10
5|CFJP|ocap://f=0x23f10cc0.0x0005.m=0x10
6|CBMT|ocap://f=0x23f10cc0.0x0006.m=0x10
7|CFCF|ocap://f=0x23f10cc0.0x0007.m=0x10
8|CKMI|ocap://f=0x23f10cc0.0x0008.m=0x10
9|VOX|ocap://f=0x23f10cc0.0x0009.m=0x10
14|METRO|ocap://f=0x23f10cc0.0x000a.m=0x10
18|CBCNN|ocap://f=0x23f10cc0.0x0001.m=0x10
19|RDI|ocap://f=0x23f10cc0.0x0002.m=0x10
21|TWN|ocap://f=0x23f10cc0.0x0003.m=0x10
28|TREE|ocap://f=0x23f10cc0.0x0004.m=0x10
29|YOOPA|ocap://f=0x23f10cc0.0x0005.m=0x10
33|RDS|ocap://f=0x23f10cc0.0x0006.m=0x10
60|TSN.|ocap://f=0x23f10cc0.0x0007.m=0x10
70|SPACE|ocap://f=0x23f10cc0.0x0008.m=0x10
85|SNWL|ocap://f=0x23f10cc0.0x0009.m=0x10
86|NBATV|ocap://f=0x23f10cc0.0x000a.m=0x10
127|COMED|ocap://f=0x23f10cc0.0x0001.m=0x10
132|ACTIO|ocap://f=0x23f10cc0.0x0002.m=0x10
148|MTV|ocap://f=0x23f10cc0.0x0003.m=0x10
211|M|ocap://f=0x23f10cc0.0x0004.m=0x10
660|TSNHD|ocap://f=0x23f10cc0.0x0005.m=0x10
661|RSNHD|ocap://f=0x23f10cc0.0x0006.m=0x10
701|SE HD|ocap://f=0x23f10cc0.0x0007.m=0x10
712|HBOCH|ocap://f=0x23f10cc0.0x0008.m=0x10
713|GLFHD|ocap://f=0x23f10cc0.0x0009.m=0x10
606|CBCHD|ocap://f=0x23f10cc0.0x000a.m=0x10
607|CTVHD|ocap://f=0x23f10cc0.0x0001.m=0x10
711|MHD|ocap://f=0x23f10cc0.0x0002.m=0x10
301|IND1|ocap://f=0x23f10cc0.0x0003.m=0x10
302|IND2|ocap://f=0x23f10cc0.0x0004.m=0x10
303|IND3|ocap://f=0x23f10cc0.0x0005.m=0x10
351|VCC1|ocap://f=0x23f10cc0.0x0006.m=0x10
352|VCC2|ocap://f=0x23f10cc0.0x0007.m=0x10
353|VCC3|ocap://f=0x23f10cc0.0x0008.m=0x10
