{
  "vodParam": {
    "channelOnDemand": {
      "rootParams": [
        "Menu",
        "TOPIC",
        "Environnement des Chaines",
        "Videotron"
      ],
      "allChannels": [
        "Menu",
        "TOPIC",
        "Environnement des Chaines",
        "Videotron"
      ]
    },
    "clubIllico": {
      "rootParams":  [
        "Menu",
        "TOPIC",
        "ClubIllico",
        "VSD"
      ],
      "allTitles": [
        "Menu",
        "TOPIC",
        "ClubIllico",
        "VSD"
      ],
      "newArrivals": [
        "Menu",
        "TOPIC",
        "ClubNouvelArrivage",
        "VSD"
      ]
    },
    "moviesAndSeries": {
      "rootParams":  [
        "Menu",
      ],
      "allTitles": [
        "Menu"
      ],
      "mostPopular": [
        "Menu",
        "TOPIC",
        "AccueilPlusPopulaire",
        "VSD"
      ]
    },
    "myWishlist": [
      "Menu",
      "WISHLIST"
    ],
    "resumeViewing": [
      "Menu",
      "RESUMEVIEWING"
    ]
  }
}