###########################
#[notification]
###########################

[01_hotkeybg.png]
[12_largebg.png]
[16_icon001.png]
[16_icon002.png]
[16_icon003.png]
[btn_210_foc.png]
[btn_210_l.png]
[btn_exit.png]
[noti_icn_01.png]
[noti_icn_02.png]
[noti_icn_03.png]
[noti_icn_04.png]
[ok.png]
[reminder_bg.png]
[reminder_bg_l.png]




###########################################################
#
# --> RESULT
#
# TOTAL IMAGE COUNT = 16
# 1st Filtered(ex: "aa_bb_cc_dd.png") = 0 (No Reference)
# 2nd Filtered(ex: "aa_bb_cc_dd") = 0 (No Reference)
# 3rd Filtered(ex: "aa_bb_cc_") = 0 (No Reference)
# 4th Filtered(ex: "aa_bb_cc") = 0 (No Reference)
# 5th Filtered(ex: "_bb_cc_dd") = 0 (No Reference)
# 6th Filtered(ex: "bb_cc_dd") = 0 (No Reference)
#
###########################################################
