###########################
#[isa]
###########################

[02_icon_isa_bl.png]
[02_icon_isa_gr.png]
[05_focus.png]
[05_focus_dim.png]
[05_focus_off.png]
[05_pop_glow_b.png]
[05_pop_glow_m.png]
[05_pop_glow_t.png]
[07_respop_title.png]
[12_pop_high_545.png]
[12_pop_high_625.png]
[12_ppop_sha.png]
[b_btn_exit.png] ----> NOT using!!

             recheck --> [b_btn_exit] NOT OK XXXXXXXXXXXXXXXXXX
             recheck --> [b_btn_] NOT OK XXXXXXXXXXXXXXXXXX
             recheck --> [b_btn] NOT OK XXXXXXXXXXXXXXXXXX
             recheck --> [_btn_exit] NOT OK XXXXXXXXXXXXXXXXXX
             recheck --> [btn_exit] NOT OK XXXXXXXXXXXXXXXXXX

[chlogobg_2.png]
[icon_call.png]
[icon_g_check.png]
[icon_noti_red.png]
[icon_r_x__small.png]
[input_210.png]
[input_210_foc2.png]
[isa_pop_sh_b.png]
[isa_pop_sh_t.png]
[pop_506_bg_2.png]
[pop_d_glow_461.png]
[pop_gap_379.png]
[pop_high_350.png]
[pop_high_402.png] ----> NOT using!!

             recheck --> [pop_high_402] NOT OK XXXXXXXXXXXXXXXXXX
             recheck --> [pop_high_] OK
             recheck --> [pop_high] OK
             recheck --> [_high_402] NOT OK XXXXXXXXXXXXXXXXXX
             recheck --> [high_402] NOT OK XXXXXXXXXXXXXXXXXX

[pop_sep_589.png]
[pop_sha.png]
[scr_bar.png] is used by framework
found at = ../framework/app/com/videotron/tvi/illico/ui/ScrollTexts.java:        private Image iBar = dataCenter.getImage("scr_bar.png");
[scr_bar.png] ----> NOT using!!

             recheck --> [scr_bar] NOT OK XXXXXXXXXXXXXXXXXX
             recheck --> [scr_] NOT OK XXXXXXXXXXXXXXXXXX
             recheck --> [scr] OK
             recheck --> [_bar] NOT OK XXXXXXXXXXXXXXXXXX
             recheck --> [bar] NOT OK XXXXXXXXXXXXXXXXXX

[scr_m.png] is used by framework
found at = ../framework/app/com/videotron/tvi/illico/ui/ScrollTexts.java:            dataCenter.getImage("scr_m.png"),
[scr_m.png] ----> NOT using!!

             recheck --> [scr_m] NOT OK XXXXXXXXXXXXXXXXXX
             recheck --> [scr_] NOT OK XXXXXXXXXXXXXXXXXX
             recheck --> [scr] OK
             recheck --> [_m] OK
             recheck --> [m] OK

[scrbg_dn.png] is used by framework
found at = ../framework/app/com/videotron/tvi/illico/ui/ScrollTexts.java:            dataCenter.getImage("scrbg_dn.png")
[scrbg_dn.png] ----> NOT using!!

             recheck --> [scrbg_dn] NOT OK XXXXXXXXXXXXXXXXXX
             recheck --> [scrbg_] NOT OK XXXXXXXXXXXXXXXXXX
             recheck --> [scrbg] NOT OK XXXXXXXXXXXXXXXXXX
             recheck --> [_dn] NOT OK XXXXXXXXXXXXXXXXXX
             recheck --> [dn] NOT OK XXXXXXXXXXXXXXXXXX

[scrbg_up.png] is used by framework
found at = ../framework/app/com/videotron/tvi/illico/ui/ScrollTexts.java:            dataCenter.getImage("scrbg_up.png"),
[scrbg_up.png] ----> NOT using!!

             recheck --> [scrbg_up] NOT OK XXXXXXXXXXXXXXXXXX
             recheck --> [scrbg_] NOT OK XXXXXXXXXXXXXXXXXX
             recheck --> [scrbg] NOT OK XXXXXXXXXXXXXXXXXX
             recheck --> [_up] NOT OK XXXXXXXXXXXXXXXXXX
             recheck --> [up] OK





###########################################################
#
# --> RESULT
#
# TOTAL IMAGE COUNT = 34
# 1st Filtered(ex: "aa_bb_cc_dd.png") = 6 (No Reference)
# 2nd Filtered(ex: "aa_bb_cc_dd") = 6 (No Reference)
# 3rd Filtered(ex: "aa_bb_cc_") = 5 (No Reference)
# 4th Filtered(ex: "aa_bb_cc") = 3 (No Reference)
# 5th Filtered(ex: "_bb_cc_dd") = 5 (No Reference)
# 6th Filtered(ex: "bb_cc_dd") = 4 (No Reference)
#
###########################################################
