###########################
#[pastille]
###########################

[b_btn_exit.png]
[b_btn_ok.png]
[pastille_bg.png]
[pastille_bg_l.png]
[pastille_img.png]




###########################################################
#
# --> RESULT
#
# TOTAL IMAGE COUNT = 6
# 1st Filtered(ex: "aa_bb_cc_dd.png") = 0 (No Reference)
# 2nd Filtered(ex: "aa_bb_cc_dd") = 0 (No Reference)
# 3rd Filtered(ex: "aa_bb_cc_") = 0 (No Reference)
# 4th Filtered(ex: "aa_bb_cc") = 0 (No Reference)
# 5th Filtered(ex: "_bb_cc_dd") = 0 (No Reference)
# 6th Filtered(ex: "bb_cc_dd") = 0 (No Reference)
#
###########################################################
