SDV001|0x0002|0x0001|sdv.unavailable|sdv.close
SDV002|0x0002|0x8001|sdv.problem|sdv.close
SDV003|0x0002|0x8002|sdv.problem|sdv.close
SDV004|0x0002|0x8003|sdv.unavailable|sdv.close
SDV005|0x0002|0x8004|sdv.unavailable|sdv.close
SDV006|0x0002|0x8005|sdv.unavailable|sdv.close
SDV007|0x0002|0x80FF|sdv.problem|sdv.close
SDV008|0x0020|0x3000|sdv.problem|sdv.close
SDV009|0x0020|0x3001|sdv.problem|sdv.close
SDV010|0x0003|0x8001|sdv.unavailable|sdv.close
SDV011|0x8005|0x0000|sdv.action|sdv.ok
SDV012|0x8002|0x8001|sdv.problem|sdv.close
SDV013|0x8002|0x8005|sdv.unavailable|sdv.close
SDV014|0x8002|0x0001|sdv.unavailable|sdv.close
SDV015|0x8002|0x80FF|sdv.problem|sdv.close
SDV016|0x8002|0x8007|sdv.problem|sdv.close
SDV017|0x8020|0x3002|sdv.problem|sdv.close
